<?xml version="1.0" encoding="UTF-8" standalone="no"?>
<!-- Created with Inkscape (http://www.inkscape.org/) -->

<svg
   xmlns:osb="http://www.openswatchbook.org/uri/2009/osb"
   xmlns:dc="http://purl.org/dc/elements/1.1/"
   xmlns:cc="http://creativecommons.org/ns#"
   xmlns:rdf="http://www.w3.org/1999/02/22-rdf-syntax-ns#"
   xmlns:svg="http://www.w3.org/2000/svg"
   xmlns="http://www.w3.org/2000/svg"
   xmlns:sodipodi="http://sodipodi.sourceforge.net/DTD/sodipodi-0.dtd"
   xmlns:inkscape="http://www.inkscape.org/namespaces/inkscape"
   width="489.90747"
   height="87.030167"
   viewBox="0 0 129.62135 23.026731"
   version="1.1"
   id="svg8"
   inkscape:version="0.92.4 (5da689c313, 2019-01-14)"
   sodipodi:docname="text-e-smiley-black-white-blue.svg"
   inkscape:export-filename="/home/clumsy/Documents/emirror-de/logo/final_jun2019/text-e-smiley-black-white-blue.png"
   inkscape:export-xdpi="201.42"
   inkscape:export-ydpi="201.42">
  <title
     id="title96">emirror-de</title>
  <defs
     id="defs2">
    <linearGradient
       id="linearGradient4554"
       osb:paint="solid">
      <stop
         style="stop-color:#000000;stop-opacity:1;"
         offset="0"
         id="stop4552" />
    </linearGradient>
  </defs>
  <sodipodi:namedview
     id="base"
     pagecolor="#ffffff"
     bordercolor="#666666"
     borderopacity="1.0"
     inkscape:pageopacity="0.0"
     inkscape:pageshadow="2"
     inkscape:zoom="2.8284271"
     inkscape:cx="203.80257"
     inkscape:cy="80.800313"
     inkscape:document-units="mm"
     inkscape:current-layer="layer1"
     showgrid="false"
     inkscape:snap-text-baseline="false"
     inkscape:window-width="3840"
     inkscape:window-height="2096"
     inkscape:window-x="0"
     inkscape:window-y="27"
     inkscape:window-maximized="1"
     showborder="false"
     inkscape:showpageshadow="true"
     inkscape:pagecheckerboard="false"
     fit-margin-top="4"
     fit-margin-left="0"
     fit-margin-right="8"
     fit-margin-bottom="0"
     units="px" />
  <metadata
     id="metadata5">
    <rdf:RDF>
      <cc:Work
         rdf:about="">
        <dc:format>image/svg+xml</dc:format>
        <dc:type
           rdf:resource="http://purl.org/dc/dcmitype/StillImage" />
        <dc:title>emirror-de</dc:title>
        <dc:creator>
          <cc:Agent>
            <dc:title>Lewin Probst, emirror-de</dc:title>
          </cc:Agent>
        </dc:creator>
      </cc:Work>
    </rdf:RDF>
  </metadata>
  <g
     inkscape:label="Layer 1"
     inkscape:groupmode="layer"
     id="layer1"
     transform="translate(-59.489,-180.88327)">
    <flowRoot
       xml:space="preserve"
       id="flowRoot4777"
       style="font-style:normal;font-weight:normal;font-size:40px;line-height:1.25;font-family:sans-serif;letter-spacing:0px;word-spacing:0px;fill:#000000;fill-opacity:1;stroke:none"><flowRegion
         id="flowRegion4779"><rect
           id="rect4781"
           width="43.57143"
           height="130.71428"
           x="64.285713"
           y="155.12938" /></flowRegion><flowPara
         id="flowPara4783" /></flowRoot>    <text
       xml:space="preserve"
       style="font-style:normal;font-variant:normal;font-weight:normal;font-stretch:normal;font-size:22.57777786px;line-height:1.25;font-family:Hack;-inkscape-font-specification:'Hack, Normal';font-variant-ligatures:normal;font-variant-caps:normal;font-variant-numeric:normal;font-feature-settings:normal;text-align:start;letter-spacing:0px;word-spacing:0px;writing-mode:lr-tb;text-anchor:start;fill:#111d38;fill-opacity:1;stroke:none;stroke-width:0.26458332"
       x="61.8582"
       y="201.7536"
       id="text4793"><tspan
         sodipodi:role="line"
         id="tspan4791"
         x="61.8582"
         y="201.7536"
         style="font-style:normal;font-variant:normal;font-weight:normal;font-stretch:normal;font-size:25.39999962px;font-family:'Fira Sans';-inkscape-font-specification:'Fira Sans';font-variant-ligatures:normal;font-variant-caps:normal;font-variant-numeric:normal;font-feature-settings:normal;text-align:start;writing-mode:lr-tb;text-anchor:start;fill:#111d38;fill-opacity:1;stroke-width:0.26458332"><tspan
           style="fill:none"
           id="tspan840">e</tspan><tspan
           style="fill:#000000;fill-opacity:1"
           id="tspan1171">mirror-de</tspan></tspan></text>
    <g
       transform="translate(4.169195,96.655922)"
       id="g6681">
      <text
         transform="rotate(-30)"
         id="text937-4"
         y="123.73871"
         x="-1.1062965"
         style="font-style:normal;font-variant:normal;font-weight:normal;font-stretch:normal;font-size:25.39999962px;line-height:1.25;font-family:'Fira Sans';-inkscape-font-specification:'Fira Sans, Normal';font-variant-ligatures:normal;font-variant-caps:normal;font-variant-numeric:normal;font-feature-settings:normal;text-align:start;letter-spacing:0px;word-spacing:0px;writing-mode:lr-tb;text-anchor:start;fill:#111d38;fill-opacity:1;stroke:none;stroke-width:0.26458332"
         xml:space="preserve"><tspan
           style="fill:#154681;fill-opacity:1;stroke-width:0.26458332"
           y="123.73871"
           x="-1.1062965"
           id="tspan935-9"
           sodipodi:role="line">e</tspan></text>
      <circle
         r="0.80000001"
         cy="95.271263"
         cx="62.820446"
         id="path6655"
         style="opacity:1;fill:#154681;fill-opacity:1;stroke:none;stroke-width:0.1;stroke-linecap:butt;stroke-linejoin:miter;stroke-miterlimit:4;stroke-dasharray:none;stroke-dashoffset:37.79527664;stroke-opacity:1;paint-order:normal" />
    </g>
  </g>
</svg>
